.................
----------------------------------------------------------------------
Ran 17 tests in 0.732s

OK
Name             Stmts   Miss Branch BrPart  Cover   Missing
------------------------------------------------------------
Collatz.py          54      0     18      0   100%
TestCollatz.py      75      0      0      0   100%
------------------------------------------------------------
TOTAL              129      0     18      0   100%
